<?xml version="1.0" encoding="utf-8"?>
<!-- Generator: Adobe Illustrator 16.0.0, SVG Export Plug-In . SVG Version: 6.00 Build 0)  -->
<!DOCTYPE svg PUBLIC "-//W3C//DTD SVG 1.1//EN" "http://www.w3.org/Graphics/SVG/1.1/DTD/svg11.dtd">
<svg version="1.1" id="Capa_1" xmlns="http://www.w3.org/2000/svg" xmlns:xlink="http://www.w3.org/1999/xlink" x="0px" y="0px"
	 width="340.158px" height="340.158px" viewBox="0 0 340.158 340.158" enable-background="new 0 0 340.158 340.158"
	 xml:space="preserve">
<g>
	<g>
		<g>
			<path d="M101.357,270.413c-3.078,0-5.575,2.5-5.575,5.576c0,3.078,2.498,5.576,5.575,5.576c3.078,0,5.576-2.498,5.576-5.576
				C106.933,272.913,104.435,270.413,101.357,270.413z"/>
		</g>
	</g>
	<g>
		<g>
			<path d="M308.454,246.995c-0.021-0.043-0.043-0.084-0.066-0.125L204.46,56.843c-6.914-12.87-19.768-20.555-34.379-20.555
				c-0.001,0,0,0-0.001,0c-14.611,0-27.466,7.685-34.362,20.519L31.771,246.87c-0.023,0.041-0.045,0.084-0.067,0.125
				c-13.362,26.002,5.545,56.875,34.716,56.875h207.323C302.983,303.87,321.796,272.94,308.454,246.995z M273.745,292.718H66.42
				c-20.823,0-34.307-22.014-24.829-40.564L145.521,62.121c4.94-9.192,14.122-14.682,24.559-14.682s19.617,5.489,24.578,14.718
				l103.912,189.998C308.046,270.696,294.585,292.718,273.745,292.718z"/>
		</g>
	</g>
	<g>
		<g>
			<path d="M288.815,257.557c-0.023-0.045-0.047-0.09-0.07-0.135L184.817,67.395c-2.965-5.514-8.475-8.805-14.734-8.805
				c-6.264,0-11.774,3.291-14.722,8.771L51.609,257.065c-0.022,0.045-0.046,0.086-0.067,0.129
				c-5.713,11.117,2.351,24.371,14.872,24.371h12.64c3.079,0,5.576-2.496,5.576-5.576c0-3.078-2.497-5.576-5.576-5.576H66.415
				c-4.208,0-6.83-4.391-4.983-8.068L165.164,72.677c1.305-2.428,3.396-2.938,4.919-2.938c1.52,0,3.609,0.51,4.933,2.972
				l103.903,189.982c1.512,3.051-0.801,7.719-5.174,7.719H123.66c-3.079,0-5.576,2.496-5.576,5.576c0,3.078,2.497,5.576,5.576,5.576
				h150.085C286.55,281.565,294.136,267.944,288.815,257.557z"/>
		</g>
	</g>
	<g>
		<g>
			<path d="M208.153,166.927c-1.037-1.532-2.766-2.449-4.617-2.449h-27.879V108.72c0-2.673-1.895-4.97-4.521-5.476
				c-2.625-0.505-5.238,0.923-6.23,3.405l-33.454,83.634c-0.687,1.719-0.477,3.664,0.56,5.195c1.038,1.533,2.767,2.451,4.618,2.451
				h27.877v55.756c0,2.674,1.897,4.971,4.522,5.475c2.636,0.508,5.241-0.934,6.231-3.404l33.453-83.635
				C209.401,170.406,209.19,168.46,208.153,166.927z M175.659,224.735v-32.381c0-3.078-2.498-5.574-5.576-5.574h-25.219
				l19.643-49.107v32.38c0,3.08,2.497,5.575,5.576,5.575h25.219L175.659,224.735z"/>
		</g>
	</g>
</g>
</svg>
